{"results":[{"name":"lunetics\/locale-bundle","description":"A Bundle for switching Languages","url":"https:\/\/packagist.org\/packages\/lunetics\/locale-bundle","repository":"https:\/\/github.com\/lunetics\/LocaleBundle","downloads":137175,"favers":2},{"name":"zf1\/zend-locale","description":"Zend Framework 1 Locale package","url":"https:\/\/packagist.org\/packages\/zf1\/zend-locale","repository":"https:\/\/github.com\/zf1\/zend-locale.git","downloads":25481,"favers":0},{"name":"fightbulc\/moment","description":"Parse, validate, manipulate, and display dates in PHP w\/ i18n support. Inspired by moment.js","url":"https:\/\/packagist.org\/packages\/fightbulc\/moment","repository":"https:\/\/github.com\/fightbulc\/moment.php","downloads":12140,"favers":1},{"name":"slm\/locale","description":"Automatic detection of locales for Zend Framework 2","url":"https:\/\/packagist.org\/packages\/slm\/locale","repository":"https:\/\/github.com\/juriansluiman\/SlmLocale","downloads":10138,"favers":0},{"name":"codemix\/yii2-localeurls","description":"Automatic locale\/language management for URLs.","url":"https:\/\/packagist.org\/packages\/codemix\/yii2-localeurls","repository":"https:\/\/github.com\/codemix\/yii2-localeurls","downloads":2132,"favers":0},{"name":"sylius\/locale","description":"Locale handling for PHP applications.","url":"https:\/\/packagist.org\/packages\/sylius\/locale","repository":"http:\/\/github.com\/Sylius\/Locale.git","downloads":1920,"favers":0},{"name":"tractorcow\/silverstripe-fluent","description":"Simple localisation for Silverstripe","url":"https:\/\/packagist.org\/packages\/tractorcow\/silverstripe-fluent","repository":"https:\/\/github.com\/tractorcow\/silverstripe-fluent","downloads":2042,"favers":0},{"name":"sylius\/locale-bundle","description":"Locales management for Symfony2 projects.","url":"https:\/\/packagist.org\/packages\/sylius\/locale-bundle","repository":"http:\/\/github.com\/Sylius\/SyliusLocaleBundle.git","downloads":1450,"favers":0},{"name":"pascalc\/tinyl10n","description":"Easy locale detection and automatic fallback to the best locale possible, other l10n niceties","url":"https:\/\/packagist.org\/packages\/pascalc\/tinyl10n","repository":"git@github.com:pascalchevrel\/tinyl10n.git","downloads":1501,"favers":0},{"name":"dlds\/yii2-localeurls","description":"Automatic locale\/language management for URLs.","url":"https:\/\/packagist.org\/packages\/dlds\/yii2-localeurls","repository":"https:\/\/github.com\/dlds\/yii2-localeurls","downloads":81,"favers":0},{"name":"instaclick\/translation-editor-bundle","description":"Web editor UI to manage Symfony2 translations (Symfony2 bundle)","url":"https:\/\/packagist.org\/packages\/instaclick\/translation-editor-bundle","repository":"https:\/\/github.com\/instaclick\/TranslationEditorBundle.git","downloads":11316,"favers":2},{"name":"unionofrad\/li3_lldr","description":"A Lithium plugin with additional g11n resources constituting the Lithium Locale Data Repository.","url":"https:\/\/packagist.org\/packages\/unionofrad\/li3_lldr","repository":"https:\/\/github.com\/UnionOfRAD\/li3_lldr","downloads":547,"favers":0},{"name":"kiaking\/laravel-locale","description":"Locale routing and url generating helper for Laravel 5.","url":"https:\/\/packagist.org\/packages\/kiaking\/laravel-locale","repository":"https:\/\/github.com\/kiaking\/laravel-locale","downloads":199,"favers":0},{"name":"servergrove\/translation-editor-bundle","description":"Web based UI to manage Symfony2 translations","url":"https:\/\/packagist.org\/packages\/servergrove\/translation-editor-bundle","repository":"https:\/\/github.com\/servergrove\/TranslationEditorBundle","downloads":1682,"favers":0},{"name":"rk\/locale-bundle","description":"Symfony RKLocaleBundle","url":"https:\/\/packagist.org\/packages\/rk\/locale-bundle","repository":"https:\/\/github.com\/yreversat\/RkLocaleBundle.git","downloads":47,"favers":0}],"total":76,"next":"https:\/\/packagist.org\/search.json?page=2\u0026tags%5B0%5D=locale"}